<?xml version="1.0" encoding="UTF-8"?>
<CustomTab xmlns="http://soap.sforce.com/2006/04/metadata">
    <auraComponent>ApprovalRequests</auraComponent>
    <label>Approvals</label>
    <mobileReady>false</mobileReady>
    <motif>Custom44: Hammer</motif>
</CustomTab>
