<?xml version="1.0" encoding="UTF-8"?>
<CustomTab xmlns="http://soap.sforce.com/2006/04/metadata">
    <label>MapAnything Guide Calendar</label>
    <mobileReady>false</mobileReady>
    <motif>Custom78: Map</motif>
    <page>mamd__MAMD_MultidayCalendar</page>
</CustomTab>
