<?xml version="1.0" encoding="UTF-8"?>
<CustomTab xmlns="http://soap.sforce.com/2006/04/metadata">
    <auraComponent>mohawkAccountTabMashup</auraComponent>
    <description>Mohawk Xchange hybris mashup</description>
    <label>Mohawk Xchange</label>
    <mobileReady>false</mobileReady>
    <motif>Custom64: Compass</motif>
</CustomTab>
