<?xml version="1.0" encoding="UTF-8"?>
<CustomTab xmlns="http://soap.sforce.com/2006/04/metadata">
    <auraComponent>MohawkTodayTab</auraComponent>
    <label>Mohawk Today</label>
    <mobileReady>false</mobileReady>
    <motif>Custom68: Globe</motif>
</CustomTab>
