<?xml version="1.0" encoding="UTF-8"?>
<CustomTab xmlns="http://soap.sforce.com/2006/04/metadata">
    <label>Insight: Companies</label>
    <mobileReady>false</mobileReady>
    <motif>Custom32: Factory</motif>
    <page>rdcc__Redirect_Company</page>
</CustomTab>
