<?xml version="1.0" encoding="UTF-8"?>
<CustomTab xmlns="http://soap.sforce.com/2006/04/metadata">
    <auraComponent>productCatalogTabMashup</auraComponent>
    <label>View Product Catalog</label>
    <mobileReady>false</mobileReady>
    <motif>Custom57: Building Block</motif>
</CustomTab>
